LAB_2/Oscillometer_Data/data_16_033.csv

 Column1 ;Column2;Column3
Channel              :;CH1;CH2
Frequency            :;174,5Hz;174,7Hz
Period               :;5,731ms;5,725ms
PK-PK                :;428,0mV;140,0mV
Probe attenuation    :;1X;1X
Voltage per ADC value:;0,250000mV;0,250000mV
Time interval        :;10,00000uS;10,00000uS
;;
index;CH1_Voltage(mV);CH2_Voltage(mV)
1;-164;0
2;-164;0
3;-164;4
4;-168;4
5;-172;8
6;-168;8
7;-168;8
8;-168;12
9;-168;12
10;-164;12
11;-168;12
12;-172;16
13;-172;12
14;-172;16
15;-176;12
16;-176;12
17;-176;12
18;-176;12
19;-180;12
20;-176;12
21;-180;12
22;-180;12
23;-180;12
24;-176;12
25;-184;8
26;-180;12
27;-184;4
28;-184;4
29;-184;4
30;-184;4
31;-180;4
32;-184;4
33;-184;4
34;-188;4
35;-184;4
36;-184;4
37;-184;4
38;-176;4
39;-188;4
40;-188;4
41;-188;4
42;-188;0
43;-188;4
44;-188;4
45;-192;4
46;-188;0
47;-188;4
48;-188;0
49;-188;0
50;-188;0
51;-188;4
52;-192;4
53;-188;0
54;-188;4
55;-188;4
56;-184;4
57;-188;0
58;-188;0
59;-188;0
60;-184;0
61;-184;0
62;-184;-4
63;-184;-4
64;-180;-4
65;-184;-8
66;-188;-8
67;-184;-12
68;-184;-12
69;-180;-16
70;-180;-16
71;-176;-20
72;-180;-20
73;-168;-24
74;-180;-20
75;-176;-20
76;-176;-24
77;-176;-24
78;-172;-24
79;-172;-20
80;-164;-20
81;-172;-20
82;-172;-20
83;-172;-16
84;-168;-16
85;-168;-12
86;-168;-8
87;-168;-8
88;-168;-8
89;-164;-4
90;-164;0
91;-164;4
92;-172;4
93;-160;8
94;-160;8
95;-160;8
96;-156;12
97;-156;12
98;-156;16
99;-156;12
100;-156;16
101;-152;16
102;-152;16
103;-152;16
104;-148;16
105;-144;12
106;-144;12
107;-144;16
108;-144;12
109;-140;12
110;-140;12
111;-136;8
112;-140;8
113;-140;8
114;-136;8
115;-132;8
116;-132;8
117;-132;8
118;-128;8
119;-128;8
120;-116;8
121;-124;8
122;-124;8
123;-120;8
124;-120;52
125;-116;52
126;-116;52
127;-120;52
128;-112;48
129;-112;48
130;-108;48
131;-108;44
132;-104;44
133;-104;40
134;-96;40
135;-100;40
136;-96;36
137;-96;32
138;-96;32
139;-92;28
140;-92;28
141;-88;28
142;-88;28
143;-84;28
144;-84;24
145;-84;24
146;-84;24
147;-80;24
148;-76;24
149;-72;24
150;-72;24
151;-68;28
152;-68;32
153;-64;32
154;-60;36
155;-84;36
156;-60;36
157;-60;40
158;-56;44
159;-52;48
160;-56;48
161;-44;52
162;-56;52
163;-44;52
164;-44;56
165;-40;56
166;-40;56
167;-32;60
168;-36;60
169;-32;60
170;-32;60
171;-28;60
172;-28;60
173;-24;60
174;-20;60
175;-20;60
176;-16;56
177;-12;60
178;-16;56
179;-12;56
180;-8;56
181;-8;56
182;-4;56
183;-4;52
184;0;56
185;4;52
186;4;52
187;4;52
188;8;52
189;8;48
190;12;52
191;16;52
192;16;52
193;20;48
194;20;52
195;36;48
196;24;48
197;28;52
198;28;48
199;32;48
200;36;48
201;36;48
202;36;48
203;40;48
204;40;48
205;40;48
206;44;48
207;48;48
208;52;48
209;52;48
210;56;48
211;52;48
212;56;44
213;60;48
214;64;48
215;64;48
216;60;48
217;68;48
218;68;48
219;72;44
220;72;48
221;76;44
222;76;44
223;68;44
224;80;44
225;84;44
226;84;36
227;88;36
228;92;36
229;92;32
230;92;32
231;96;28
232;96;28
233;100;28
234;100;24
235;104;24
236;104;24
237;128;24
238;108;24
239;112;24
240;108;20
241;116;24
242;120;24
243;120;28
244;120;28
245;120;28
246;124;32
247;124;32
248;128;36
249;124;40
250;132;40
251;132;48
252;136;48
253;136;48
254;136;52
255;140;52
256;140;56
257;140;56
258;140;56
259;144;60
260;148;60
261;148;60
262;148;60
263;152;60
264;152;60
265;152;60
266;156;60
267;156;56
268;160;56
269;160;56
270;152;56
271;164;56
272;164;56
273;164;52
274;164;56
275;168;52
276;168;56
277;164;52
278;168;52
279;172;52
280;172;52
281;172;52
282;176;52
283;176;52
284;176;48
285;180;52
286;180;48
287;180;52
288;180;48
289;184;48
290;184;48
291;188;48
292;184;48
293;188;52
294;188;48
295;188;48
296;192;48
297;188;48
298;196;48
299;192;48
300;188;48
301;192;48
302;192;48
303;192;48
304;196;48
305;208;48
306;192;44
307;196;48
308;200;44
309;196;44
310;196;40
311;196;44
312;196;40
313;200;40
314;200;36
315;200;36
316;200;32
317;192;28
318;200;28
319;204;24
320;200;28
321;200;24
322;200;24
323;200;20
324;196;20
325;204;24
326;200;20
327;204;24
328;204;24
329;204;28
330;200;32
331;200;32
332;200;-48
333;204;-48
334;204;-44
335;204;-44
336;200;-44
337;200;-40
338;200;-40
339;204;-40
340;200;-36
341;204;-36
342;204;-36
343;200;-36
344;200;-32
345;192;-32
346;200;-32
347;200;-32
348;204;-32
349;200;-32
350;200;-28
351;200;-28
352;208;-32
353;200;-28
354;196;-28
355;200;-28
356;196;-28
357;196;-28
358;192;-28
359;196;-28
360;192;-32
361;192;-28
362;192;-32
363;188;-32
364;192;-32
365;188;-32
366;192;-32
367;188;-32
368;188;-32
369;188;-32
370;184;-32
371;184;-36
372;184;-32
373;180;-36
374;184;-36
375;180;-36
376;180;-36
377;180;-32
378;176;-36
379;176;-36
380;172;-36
381;176;-36
382;172;-40
383;176;-36
384;172;-36
385;172;-36
386;168;-40
387;148;-36
388;168;-40
389;168;-36
390;164;-36
391;160;-36
392;164;-36
393;156;-40
394;164;-36
395;160;-40
396;156;-36
397;156;-40
398;152;-40
399;156;-36
400;152;-40
401;148;-36
402;144;-36
403;144;-36
404;140;-36
405;140;-40
406;136;-40
407;140;-40
408;136;-36
409;136;-36
410;132;-36
411;132;-40
412;132;-40
413;124;-40
414;128;-40
415;128;-40
416;124;-44
417;124;-44
418;120;-48
419;120;-48
420;120;-48
421;120;-52
422;116;-56
423;112;-56
424;112;-56
425;108;-56
426;108;-56
427;96;-60
428;104;-60
429;104;-60
430;100;-60
431;96;-60
432;96;-60
433;96;-56
434;88;-60
435;92;-56
436;88;-56
437;84;-52
438;84;-52
439;84;-52
440;80;-48
441;80;-44
442;76;-40
443;76;-40
444;72;-40
445;72;-36
446;72;-36
447;68;-32
448;72;-32
449;64;-32
450;60;-28
451;60;-28
452;56;-28
453;56;-28
454;52;-28
455;56;-28
456;48;-28
457;48;-28
458;44;-28
459;44;-28
460;44;-28
461;40;-28
462;56;-28
463;36;-28
464;32;-28
465;32;-32
466;28;-32
467;28;-32
468;24;-32
469;20;-32
470;20;-32
471;20;-32
472;16;-32
473;16;-32
474;12;-32
475;8;-36
476;12;-32
477;8;-36
478;4;-36
479;0;-36
480;0;-36
481;-8;-36
482;0;-36
483;-4;-36
484;-8;-36
485;-8;-36
486;-12;-36
487;-12;-36
488;-16;-36
489;-16;-36
490;-20;-40
491;-24;-36
492;-24;-40
493;-28;-36
494;-28;-36
495;-32;-40
496;-32;-40
497;-36;-40
498;-36;-36
499;-36;-36
500;-40;-36
501;-44;-36
502;-56;-40
503;-48;-40
504;-52;-40
505;-52;-40
506;-52;-40
507;-56;-40
508;-56;-40
509;-60;-44
510;-60;-44
511;-60;-44
512;-64;-48
513;-64;-48
514;-68;-48
515;-72;-52
516;-68;-56
517;-76;-56
518;-76;-56
519;-76;-56
520;-80;-56
521;-80;-60
522;-84;-60
523;-80;-60
524;-88;-60
525;-88;-60
526;-92;-60
527;-92;-60
528;-92;-60
529;-96;-60
530;-96;-56
531;-100;-52
532;-104;-52
533;-104;-48
534;-104;-48
535;-108;-44
536;-112;-40
537;-108;-40
538;-112;-36
539;-116;-36
540;-116;40
541;-116;40
542;-124;44
543;-120;44
544;-140;44
545;-120;44
546;-124;48
547;-128;44
548;-132;48
549;-136;44
550;-132;44
551;-140;44
552;-136;44
553;-136;44
554;-136;44
555;-140;44
556;-140;44
557;-140;44
558;-140;40
559;-144;40
560;-148;40
561;-148;40
562;-152;40
563;-148;40
564;-152;36
565;-152;36
566;-152;36
567;-156;36
568;-156;36
569;-156;36
570;-160;32
571;-160;36
572;-156;36
573;-160;36
574;-160;36
575;-164;36
576;-164;32
577;-172;32
578;-168;36
579;-168;32
580;-168;36
581;-168;36
582;-168;36
583;-168;36
584;-160;36
585;-172;36
586;-172;36
587;-176;32
588;-176;36
589;-180;32
590;-176;32
591;-176;32
592;-176;36
593;-180;32
594;-180;28
595;-180;28
596;-184;24
597;-180;24
598;-180;20
599;-184;20
600;-184;20
601;-180;16
602;-184;16
603;-184;12
604;-184;12
605;-188;12
606;-184;8
607;-184;12
608;-188;8
609;-188;8
610;-188;8
611;-188;8
612;-196;8
613;-184;12
614;-188;12
615;-188;12
616;-188;16
617;-188;20
618;-184;20
619;-196;24
620;-184;28
621;-188;28
622;-188;32
623;-188;36
624;-184;36
625;-188;40
626;-168;40
627;-188;40
628;-188;44
629;-188;44
630;-188;44
631;-180;44
632;-184;44
633;-184;44
634;-188;44
635;-184;44
636;-184;44
637;-184;44
638;-188;44
639;-180;44
640;-180;44
641;-184;44
642;-180;44
643;-180;40
644;-180;40
645;-176;40
646;-180;40
647;-176;40
648;-176;36
649;-176;40
650;-176;40
651;-176;36
652;-168;36
653;-172;36
654;-172;40
655;-172;36
656;-168;36
657;-168;36
658;-168;36
659;-164;36
660;-164;36
661;-164;36
662;-164;32
663;-164;32
664;-164;36
665;-164;36
666;-168;36
667;-160;36
668;-156;32
669;-156;32
670;-156;32
671;-152;32
672;-152;32
673;-156;32
674;-152;32
675;-148;32
676;-148;32
677;-148;32
678;-144;32
679;-144;32
680;-140;32
681;-140;32
682;-140;32
683;-140;28
684;-136;28
685;-136;24
686;-136;24
687;-136;20
688;-132;20
689;-132;16
690;-128;16
691;-128;16
692;-120;12
693;-128;12
694;-100;12
695;-120;12
696;-120;8
697;-116;8
698;-120;8
699;-112;8
700;-112;8
701;-104;8
702;-108;12
703;-108;12
704;-104;16
705;-104;16
706;-108;20
707;-100;24
708;-96;32
709;-96;32
710;-96;36
711;-92;40
712;-92;44
713;-96;40
714;-84;44
715;-84;44
716;-84;44
717;-80;44
718;-80;48
719;-76;44
720;-72;44
721;-72;44
722;-68;44
723;-68;44
724;-68;44
725;-64;44
726;-60;44
727;-60;40
728;-60;40
729;-56;40
730;-56;40
731;-52;40
732;-52;40
733;-48;36
734;-48;40
735;-44;36
736;-44;36
737;-40;36
738;-36;36
739;-36;36
740;-32;36
741;-20;36
742;-32;36
743;-28;36
744;-28;36
745;-24;36
746;-20;36
747;-20;40
748;-20;36
749;-16;32
750;-12;32
751;-12;32
752;-12;28
753;-4;32
754;-4;28
755;0;24
756;0;24
757;0;20
758;4;20
759;4;16
760;8;16
761;8;16
762;8;12
763;16;12
764;16;12
765;20;12
766;20;8
767;20;8
768;24;8
769;16;8
770;28;4
771;28;4
772;32;4
773;32;4
774;36;8
775;40;8
776;28;12
777;40;12
778;44;16
779;44;20
780;48;20
781;52;24
782;52;24
783;68;28
784;56;32
785;60;32
786;60;36
787;64;36
788;72;40
789;64;40
790;68;40
791;68;40
792;72;44
793;72;44
794;76;40
795;80;44
796;80;40
797;80;40
798;84;40
799;84;40
800;88;40
801;88;44
802;96;40
803;96;40
804;96;40
805;96;36
806;100;36
807;100;36
808;104;36
809;108;36
810;108;36
811;108;36
812;112;36
813;112;32
814;116;32
815;116;36
816;128;36
817;120;32
818;120;32
819;124;32
820;128;32
821;124;32
822;128;28
823;128;32
824;136;32
825;136;32
826;136;32
827;136;32
828;136;32
829;140;32
830;140;32
831;144;32
832;148;32
833;148;32
834;148;32
835;152;32
836;152;32
837;148;32
838;156;28
839;156;28
840;156;32
841;160;32
842;164;32
843;160;28
844;156;32
845;164;32
846;168;28
847;168;28
848;168;28
849;172;28
850;168;24
851;184;24
852;172;24
853;176;20
854;172;20
855;176;16
856;176;16
857;176;16
858;188;12
859;180;12
860;180;8
861;180;8
862;184;8
863;180;8
864;184;4
865;188;4
866;184;4
867;184;8
868;184;4
869;188;4
870;180;12
871;192;8
872;188;12
873;192;12
874;192;16
875;192;20
876;192;24
877;192;24
878;192;28
879;192;28
880;196;32
881;196;32
882;196;36
883;196;36
884;196;40
885;196;40
886;200;40
887;196;40
888;200;40
889;200;44
890;200;44
891;188;44
892;200;44
893;200;40
894;200;40
895;200;40
896;200;40
897;200;40
898;200;40
899;200;40
900;200;36
901;200;36
902;200;36
903;204;36
904;200;36
905;204;32
906;200;32
907;200;36
908;200;36
909;200;32
910;204;36
911;200;32
912;208;32
913;200;36
914;200;32
915;200;32
916;200;32
917;204;32
918;200;32
919;204;32
920;200;32
921;200;32
922;200;32
923;200;32
924;196;32
925;200;32
926;204;28
927;196;28
928;196;32
929;196;32
930;192;32
931;192;32
932;192;32
933;176;32
934;192;28
935;192;32
936;188;32
937;188;32
938;180;28
939;188;32
940;180;28
941;188;28
942;184;28
943;184;28
944;180;32
945;188;28
946;180;28
947;180;28
948;180;28
949;180;32
950;176;28
951;176;28
952;180;32
953;172;28
954;176;32
955;172;32
956;172;28
957;168;-36
958;168;-40
959;172;-40
960;164;-40
961;164;-40
962;164;-44
963;164;-44
964;160;-44
965;160;-48
966;160;-48
967;156;-52
968;156;-52
969;156;-52
970;152;-52
971;152;-56
972;152;-56
973;160;-56
974;148;-56
975;148;-56
976;144;-56
977;140;-60
978;140;-56
979;140;-56
980;136;-56
981;140;-52
982;136;-52
983;132;-52
984;132;-48
985;132;-48
986;128;-44
987;128;-44
988;128;-40
989;124;-36
990;124;-36
991;120;-32
992;120;-28
993;116;-28
994;112;-24
995;116;-28
996;112;-24
997;108;-24
998;108;-24
999;104;-24
1000;104;-20
1001;88;-24
1002;104;-24
1003;100;-24
1004;96;-24
1005;96;-24
1006;96;-24
1007;92;-24
1008;88;-24
1009;88;-24
1010;84;-24
1011;84;-28
1012;84;-28
1013;80;-28
1014;80;-28
1015;96;-28
1016;76;-32
1017;72;-28
1018;72;-32
1019;72;-32
1020;64;-32
1021;68;-32
1022;64;-32
1023;64;-32
1024;60;-32
1025;60;-32
1026;56;-32
1027;48;-32
1028;52;-32
1029;48;-32
1030;48;-32
1031;44;-36
1032;44;-36
1033;40;-32
1034;36;-32
1035;36;-32
1036;36;-36
1037;32;-32
1038;32;-32
1039;28;-36
1040;28;-32
1041;24;-36
1042;24;-36
1043;20;-32
1044;20;-36
1045;16;-32
1046;16;-36
1047;16;-36
1048;0;-36
1049;12;-36
1050;8;-36
1051;4;-36
1052;4;-36
1053;0;-40
1054;0;-40
1055;-4;-40
1056;-4;-44
1057;-8;-44
1058;-8;-44
1059;-12;-48
1060;-12;-52
1061;-16;-52
1062;-16;-52
1063;-20;-52
1064;-20;-52
1065;-24;-56
1066;-24;-56
1067;-24;-56
1068;-32;-56
1069;-24;-56
1070;-36;-56
1071;-36;-56
1072;-36;-56
1073;-40;-52
1074;-40;-52
1075;-40;-52
1076;-40;-48
1077;-48;-48
1078;-52;-44
1079;-52;-44
1080;-56;-40
1081;-56;-36
1082;-56;-36
1083;-48;-32
1084;-60;-32
1085;-60;-32
1086;-64;-28
1087;-68;-24
1088;-72;-28
1089;-68;-24
1090;-84;-24
1091;-72;-24
1092;-76;-24
1093;-80;-20
1094;-80;-20
1095;-88;-24
1096;-84;-24
1097;-88;-24
1098;-88;-24
1099;-92;-24
1100;-92;-24
1101;-96;-24
1102;-100;-24
1103;-96;-24
1104;-96;-28
1105;-100;-24
1106;-100;-28
1107;-104;-28
1108;-104;-28
1109;-104;-28
1110;-108;-28
1111;-112;-28
1112;-112;-32
1113;-116;-32
1114;-116;-32
1115;-116;-32
1116;-120;-32
1117;-120;-32
1118;-120;-32
1119;-124;-32
1120;-124;-32
1121;-124;-32
1122;-128;-32
1123;-140;-32
1124;-128;-32
1125;-132;-36
1126;-132;-32
1127;-136;-32
1128;-136;-32
1129;-140;-32
1130;-132;-32
1131;-140;-36
1132;-144;-36
1133;-140;-36
1134;-144;-32
1135;-144;-32
1136;-144;-32
1137;-144;-32
1138;-148;-32
1139;-152;-36
1140;-156;-32
1141;-152;-36
1142;-156;-36
1143;-156;-32
1144;-152;-36
1145;-156;-36
1146;-156;-36
1147;-160;-36
1148;-160;-40
1149;-160;-40
1150;-164;-40
1151;-164;-44
1152;-164;-44
1153;-168;-48
1154;-168;-48
1155;-164;-52
1156;-172;-52
1157;-172;-52
1158;-172;-56
1159;-172;-52
1160;-172;-56
1161;-172;-56
1162;-172;-56
1163;-176;-56
1164;-172;-56
1165;-200;-56
1166;-176;-56
1167;-176;-4
1168;-176;36
1169;-180;36
1170;-180;40
1171;-176;40
1172;-188;40
1173;-180;44
1174;-184;48
1175;-180;52
1176;-180;52
1177;-172;56
1178;-184;56
1179;-184;60
1180;-184;60
1181;-184;64
1182;-184;64
1183;-184;64
1184;-184;68
1185;-184;64
1186;-184;64
1187;-184;64
1188;-184;64
1189;-188;68
1190;-188;64
1191;-184;64
1192;-184;64
1193;-184;64
1194;-188;64
1195;-188;64
1196;-184;64
1197;-188;64
1198;-184;64
1199;-184;60
1200;-184;60
1201;-188;60
1202;-184;60
1203;-184;60
1204;-188;60
1205;-176;60
1206;-184;56
1207;-180;60
1208;-184;56
1209;-184;56
1210;-184;56
1211;-180;56
1212;-184;56
1213;-180;56
1214;-180;56
1215;-176;56
1216;-180;56
1217;-180;56
1218;-176;56
1219;-180;56
1220;-176;56
1221;-172;56
1222;-172;56
1223;-172;52
1224;-172;56
1225;-172;56
1226;-176;56
1227;-172;52
1228;-168;56
1229;-168;56
1230;-168;56
1231;-168;56
1232;-168;52
1233;-176;52
1234;-164;52
1235;-164;48
1236;-160;48
1237;-160;48
1238;-156;48
1239;-160;44
1240;-152;40
1241;-156;40
1242;-156;40
1243;-156;36
1244;-152;36
1245;-148;32
1246;-152;32
1247;-136;32
1248;-148;32
1249;-148;32
1250;-148;28
1251;-148;32
1252;-140;28
1253;-140;32
1254;-140;28
1255;-140;32
1256;-140;36
1257;-140;40
1258;-136;40
1259;-144;48
1260;-132;48
1261;-132;52
1262;-128;56
1263;-128;56
1264;-128;60
1265;-124;64
1266;-124;64
1267;-124;64
1268;-120;64
1269;-120;68
1270;-116;64
1271;-116;64
1272;-112;64
1273;-112;64
1274;-108;68
1275;-112;68
1276;-104;68
1277;-104;68
1278;-104;64
1279;-104;64
1280;-108;64
1281;-96;64
1282;-96;60
1283;-92;60
1284;-92;60
1285;-88;60
1286;-88;60
1287;-96;60
1288;-84;60
1289;-80;60
1290;-80;60
1291;-80;60
1292;-76;56
1293;-76;56
1294;-76;60
1295;-72;56
1296;-68;56
1297;-68;56
1298;-64;56
1299;-64;56
1300;-60;56
1301;-56;52
1302;-56;56
1303;-52;52
1304;-52;56
1305;-52;56
1306;-48;56
1307;-48;56
1308;-40;52
1309;-40;52
1310;-40;52
1311;-40;52
1312;-36;52
1313;-36;52
1314;-32;52
1315;-24;52
1316;-28;48
1317;-24;48
1318;-24;48
1319;-24;44
1320;-24;44
1321;-16;44
1322;-40;40
1323;-16;40
1324;-12;36
1325;-8;36
1326;-8;32
1327;-4;32
1328;-4;32
1329;-12;32
1330;0;32
1331;0;32
1332;4;32
1333;8;28
1334;16;28
1335;8;32
1336;12;36
1337;16;36
1338;16;36
1339;16;40
1340;20;44
1341;24;48
1342;24;48
1343;28;52
1344;28;56
1345;36;60
1346;36;60
1347;36;64
1348;36;64
1349;40;64
1350;40;64
1351;44;68
1352;44;68
1353;48;64
1354;52;64
1355;48;68
1356;52;64
1357;56;64
1358;60;64
1359;60;64
1360;60;64
1361;64;64
1362;76;64
1363;68;60
1364;72;60
1365;72;60
1366;72;60
1367;76;60
1368;80;60
1369;80;60
1370;84;56
1371;80;56
1372;84;60
1373;88;60
1374;88;60
1375;92;60
1376;92;4
1377;96;4
1378;100;4
1379;100;0
1380;100;0
1381;100;0
1382;104;-4
1383;100;-4
1384;108;-8
1385;112;-8
1386;116;-12
1387;112;-12
1388;116;-12
1389;120;-16
1390;108;-16
1391;120;-16
1392;124;-20
1393;128;-20
1394;124;-24
1395;132;-24
1396;128;-24
1397;124;-24
1398;132;-24
1399;132;-24
1400;136;-24
1401;136;-24
1402;140;-20
1403;140;-20
1404;160;-16
1405;144;-12
1406;144;-16
1407;148;-12
1408;148;-8
1409;160;-8
1410;148;-4
1411;152;0
1412;156;0
1413;156;4
1414;156;8
1415;156;8
1416;156;8
1417;160;12
1418;160;12
1419;164;12
1420;164;12
1421;164;16
1422;168;12
1423;168;12
1424;168;12
1425;168;12
1426;172;12
1427;172;12
1428;172;12
1429;176;12
1430;180;8
1431;176;8
1432;176;8
1433;184;8
1434;180;8
1435;180;8
1436;180;8
1437;184;4
1438;184;4
1439;184;4
1440;184;4
1441;184;4
1442;188;4
1443;188;4
1444;180;4
1445;188;0
1446;192;4
1447;188;4
1448;192;4
1449;192;0
1450;192;0
1451;188;0
1452;192;0
1453;196;0
1454;192;0
1455;196;0
1456;196;0
1457;196;0
1458;196;0
1459;196;0
1460;196;0
1461;200;0
1462;196;0
1463;200;0
1464;200;0
1465;200;0
1466;196;0
1467;196;-4
1468;200;0
1469;200;-4
1470;200;-4
1471;200;-4
1472;220;-8
1473;200;-8
1474;196;-12
1475;200;-12
1476;200;-12
1477;200;-16
1478;200;-16
1479;200;-20
1480;200;-20
1481;200;-20
1482;204;-20
1483;200;-24
1484;192;-24
1485;200;-24
1486;204;-24
1487;200;-24
1488;200;-24
1489;200;-24
1490;200;-24
1491;196;-20
1492;200;-20
1493;200;-20
1494;200;-16
1495;200;-12
1496;196;-12
1497;196;-8
1498;196;-8
1499;196;-4
1500;196;0
1501;196;0
1502;192;4
1503;192;4
1504;192;8
1505;192;8
1506;192;8
1507;192;12
1508;188;12
1509;188;12
1510;188;12
1511;188;12
1512;176;12
1513;188;16
1514;184;12
1515;184;12
1516;184;12
1517;184;12
1518;184;8
1519;192;12
1520;180;8
1521;180;8
1522;176;8
1523;176;8
1524;176;8
1525;176;8
1526;176;8
1527;172;4
1528;172;8
1529;172;4
1530;172;4
1531;168;4
1532;168;0
1533;172;4
1534;168;0
1535;164;4
1536;164;0
1537;160;0
1538;160;0
1539;156;0
1540;156;4
1541;156;0
1542;152;0
1543;152;0
1544;152;0
1545;148;0
1546;148;0
1547;148;0
1548;144;0
1549;144;0
1550;144;0
1551;140;-4
1552;140;-4
1553;140;-4
1554;112;-8
1555;132;-8
1556;132;-8
1557;132;-12
1558;128;-12
1559;124;-16
1560;128;-16
1561;116;-20
1562;124;-20
1563;120;-20
1564;120;-20
1565;116;-24
1566;124;-20
1567;116;-24
1568;116;-24
1569;112;-28
1570;108;-28
1571;108;-24
1572;108;-24
1573;104;-24
1574;104;-20
1575;104;-20
1576;100;-16
1577;96;-12
1578;96;-12
1579;96;-8
1580;92;-4
1581;88;0
1582;88;-20
1583;84;-20
1584;84;-16
1585;80;-16
1586;80;-12
1587;84;-12
1588;76;-12
1589;72;-12
1590;72;-12
1591;72;-12
1592;68;-8
1593;68;-8
1594;76;-8
1595;60;-12
1596;60;-12
1597;60;-12
1598;56;-12
1599;56;-12
1600;52;-12
1601;48;-12
1602;48;-16
1603;48;-16
1604;48;-16
1605;40;-16
1606;40;-16
1607;36;-16
1608;32;-16
1609;36;-20
1610;36;-16
1611;36;-16
1612;28;-20
1613;24;-20
1614;24;-20
1615;20;-20
1616;20;-20
1617;16;-20
1618;16;-20
1619;16;-20
1620;16;-20
1621;12;-20
1622;-4;-24
1623;4;-20
1624;4;-20
1625;0;-20
1626;0;-20
1627;0;-20
1628;-4;-24
1629;4;-20
1630;-12;-20
1631;-8;-24
1632;-12;-20
1633;-16;-24
1634;-20;-20
1635;-20;-20
1636;-16;-24
1637;-20;-20
1638;-24;-24
1639;-28;-20
1640;-32;-24
1641;-40;-24
1642;-32;-24
1643;-32;-24
1644;-36;-20
1645;-40;-24
1646;-44;-24
1647;-44;-24
1648;-52;-24
1649;-44;-28
1650;-48;-28
1651;-52;-24
1652;-52;-32
1653;-56;-36
1654;-56;-36
1655;-60;-36
1656;-64;-36
1657;-64;-40
1658;-68;-40
1659;-68;-44
1660;-68;-44
1661;-68;-44
1662;-72;-44
1663;-72;-48
1664;-76;-44
1665;-80;-44
1666;-80;-44
1667;-84;-44
1668;-84;-44
1669;-92;-44
1670;-88;-40
1671;-88;-40
1672;-92;-36
1673;-96;-32
1674;-96;-28
1675;-96;-24
1676;-108;-20
1677;-100;-20
1678;-100;-16
1679;-104;-16
1680;-104;-16
1681;-108;-12
1682;-108;-12
1683;-112;-12
1684;-112;-8
