LAB_2/Oscillometer_Data/data_16_036.csv

Column1;Column2;Column3
Channel              :;CH1;CH2
Frequency            :;193,1Hz;246,9Hz
Period               :;5,179ms;4,050ms
PK-PK                :;416,0mV;104,0mV
Probe attenuation    :;1X;1X
Voltage per ADC value:;0,250000mV;0,250000mV
Time interval        :;10,00000uS;10,00000uS
;;
index;CH1_Voltage(mV);CH2_Voltage(mV)
1;-184;-16
2;-184;-16
3;-180;-16
4;-180;-12
5;-192;-8
6;-180;-8
7;-184;0
8;-180;-4
9;-184;0
10;-184;0
11;-184;0
12;-188;4
13;-180;4
14;-180;4
15;-180;4
16;-180;4
17;-180;4
18;-180;4
19;-176;4
20;-176;4
21;-180;4
22;-176;4
23;-176;4
24;-176;4
25;-176;0
26;-172;0
27;-172;0
28;-172;0
29;-172;0
30;-172;0
31;-172;0
32;-172;-4
33;-148;-4
34;-168;-4
35;-168;-4
36;-168;-4
37;-168;-4
38;-168;-8
39;-164;-4
40;-164;-4
41;-164;-4
42;-164;-8
43;-160;-8
44;-160;-4
45;-164;-8
46;-156;-8
47;-152;-8
48;-156;-8
49;-156;-8
50;-152;-8
51;-152;-8
52;-152;-8
53;-148;-8
54;-148;-8
55;-148;-8
56;-144;-8
57;-144;-8
58;-144;-8
59;-140;-8
60;-140;-8
61;-140;-8
62;-132;-12
63;-136;-12
64;-132;-12
65;-132;-12
66;-128;-16
67;-128;-20
68;-128;-20
69;-128;-20
70;-124;-20
71;-120;-24
72;-120;-28
73;-120;-28
74;-116;-32
75;-116;-32
76;-112;-32
77;-108;-32
78;-108;-32
79;-108;-32
80;-96;-32
81;-100;-32
82;-100;-28
83;-100;-32
84;-100;-28
85;-96;-28
86;-96;-24
87;-92;-24
88;-88;-20
89;-88;-20
90;-80;-16
91;-84;-16
92;-84;-12
93;-80;-8
94;-76;-4
95;-76;-4
96;-72;0
97;-68;0
98;-68;4
99;-64;4
100;-64;4
101;-68;0
102;-60;4
103;-56;4
104;-56;4
105;-52;4
106;-52;4
107;-52;4
108;-52;4
109;-44;4
110;-44;0
111;-40;0
112;-40;4
113;-36;0
114;-32;0
115;-16;0
116;-28;0
117;-28;0
118;-24;-4
119;-24;-4
120;-20;-4
121;-20;-4
122;-12;-4
123;-12;-4
124;-12;-4
125;-12;-4
126;-8;-4
127;-12;-4
128;-4;-4
129;0;-4
130;0;-8
131;4;-8
132;4;-8
133;8;-8
134;4;-8
135;12;-4
136;16;-8
137;16;-8
138;20;-8
139;20;-8
140;24;-8
141;24;-8
142;28;-8
143;28;-8
144;32;-8
145;36;-8
146;36;-8
147;36;-8
148;44;-8
149;44;-8
150;44;-8
151;44;-12
152;52;-12
153;52;-16
154;56;-16
155;44;-16
156;60;-20
157;60;-20
158;60;-24
159;64;-24
160;68;-24
161;68;-28
162;72;-28
163;76;-32
164;76;-28
165;76;-32
166;76;-36
167;84;-36
168;80;-32
169;88;-36
170;84;-32
171;88;-28
172;92;-28
173;92;-24
174;92;-24
175;96;-20
176;104;-20
177;100;-16
178;100;-12
179;104;32
180;104;36
181;108;36
182;108;40
183;108;40
184;112;44
185;112;44
186;116;44
187;116;48
188;120;48
189;120;48
190;120;48
191;124;48
192;124;48
193;128;48
194;128;48
195;128;48
196;132;48
197;112;48
198;136;44
199;140;44
200;136;44
201;140;44
202;140;44
203;144;44
204;140;44
205;148;40
206;148;40
207;148;40
208;152;40
209;160;40
210;152;40
211;156;40
212;156;40
213;156;36
214;156;36
215;160;36
216;164;40
217;164;36
218;164;36
219;164;36
220;164;36
221;168;36
222;168;36
223;172;36
224;168;36
225;172;40
226;172;36
227;176;40
228;176;36
229;176;36
230;180;36
231;176;36
232;176;36
233;180;36
234;180;36
235;180;36
236;180;32
237;192;36
238;184;32
239;180;32
240;184;32
241;184;28
242;184;28
243;184;24
244;180;24
245;184;20
246;188;20
247;188;20
248;188;20
249;188;16
250;188;12
251;184;12
252;188;12
253;188;12
254;192;12
255;188;12
256;192;12
257;188;12
258;192;12
259;188;12
260;192;16
261;192;20
262;192;24
263;192;24
264;192;28
265;192;32
266;192;36
267;192;40
268;192;40
269;192;44
270;192;44
271;188;44
272;208;44
273;188;48
274;192;48
275;192;48
276;188;48
277;188;48
278;188;48
279;192;48
280;188;48
281;188;48
282;184;48
283;184;44
284;180;44
285;184;44
286;184;44
287;184;44
288;180;44
289;180;40
290;180;44
291;172;40
292;180;40
293;180;40
294;180;40
295;176;40
296;176;40
297;176;40
298;176;40
299;176;40
300;176;36
301;172;36
302;172;40
303;172;36
304;172;36
305;168;36
306;168;36
307;168;36
308;168;40
309;164;40
310;164;36
311;164;40
312;152;36
313;164;36
314;160;36
315;160;36
316;156;36
317;156;36
318;156;36
319;164;36
320;152;32
321;152;32
322;148;32
323;152;28
324;148;28
325;148;24
326;148;24
327;144;20
328;144;20
329;140;16
330;136;16
331;136;12
332;136;12
333;140;12
334;132;12
335;132;8
336;132;12
337;128;8
338;128;12
339;128;12
340;120;12
341;124;16
342;120;16
343;116;20
344;116;20
345;112;20
346;112;28
347;100;28
348;108;28
349;104;32
350;104;36
351;104;36
352;104;36
353;100;44
354;84;44
355;96;44
356;92;48
357;88;44
358;88;48
359;92;48
360;84;48
361;96;48
362;80;48
363;80;48
364;76;48
365;76;48
366;80;48
367;72;48
368;72;44
369;64;44
370;64;44
371;60;44
372;60;44
373;52;40
374;56;40
375;56;40
376;52;40
377;48;40
378;52;40
379;44;36
380;44;40
381;40;40
382;40;40
383;36;40
384;36;40
385;32;40
386;28;40
387;32;-24
388;28;-20
389;24;-24
390;20;-24
391;20;-24
392;12;-24
393;16;-28
394;12;-28
395;8;-32
396;8;-32
397;8;-36
398;4;-36
399;0;-40
400;0;-40
401;-12;-40
402;0;-40
403;-8;-44
404;-8;-44
405;-8;-44
406;-12;-44
407;-16;-48
408;-24;-48
409;-20;-48
410;-20;-48
411;-24;-44
412;-28;-44
413;-28;-44
414;-32;-44
415;-28;-40
416;-36;-40
417;-40;-40
418;-40;-36
419;-44;-36
420;-40;-32
421;-44;-28
422;-44;-28
423;-52;-24
424;-52;-24
425;-56;-20
426;-56;-20
427;-60;-16
428;-60;-16
429;-52;-16
430;-64;-16
431;-68;-12
432;-72;-12
433;-72;-12
434;-72;-12
435;-72;-12
436;-96;-12
437;-80;-12
438;-84;-12
439;-84;-16
440;-84;-16
441;-88;-16
442;-92;-16
443;-104;-16
444;-92;-16
445;-96;-16
446;-96;-20
447;-100;-20
448;-92;-20
449;-104;-20
450;-104;-16
451;-108;-20
452;-108;-20
453;-112;-20
454;-112;-20
455;-116;-20
456;-116;-20
457;-116;-20
458;-120;-20
459;-120;-24
460;-124;-20
461;-124;-24
462;-124;-20
463;-124;-24
464;-128;-24
465;-128;-20
466;-128;-20
467;-132;-24
468;-136;-24
469;-132;-24
470;-140;-24
471;-136;-24
472;-140;-24
473;-144;-24
474;-144;-24
475;-144;-24
476;-140;-24
477;-148;-24
478;-148;-24
479;-148;-24
480;-148;-24
481;-152;-28
482;-156;-28
483;-160;-28
484;-156;-32
485;-156;-32
486;-160;-36
487;-160;-36
488;-160;-36
489;-160;-36
490;-168;-40
491;-164;-44
492;-164;-44
493;-164;-44
494;-164;-44
495;-164;-44
496;-168;-48
497;-168;-48
498;-172;-48
499;-168;-48
500;-172;-48
501;-172;-48
502;-172;-48
503;-172;-44
504;-172;-44
505;-176;-40
506;-176;-36
507;-176;-40
508;-176;-36
509;-172;-32
510;-176;-28
511;-156;-28
512;-180;-24
513;-176;-24
514;-176;-20
515;-176;-20
516;-180;-20
517;-180;-16
518;-180;-16
519;-180;-12
520;-180;-12
521;-180;-12
522;-180;-12
523;-188;-12
524;-180;-12
525;-180;-12
526;-184;-12
527;-180;-12
528;-184;-16
529;-180;-16
530;-188;-16
531;-180;-12
532;-180;-16
533;-180;-16
534;-180;-16
535;-180;-16
536;-176;-20
537;-176;-20
538;-176;-20
539;-176;-20
540;-176;-20
541;-176;-20
542;-176;-20
543;-172;-20
544;-176;-20
545;-172;-20
546;-176;-20
547;-172;-24
548;-168;-20
549;-172;-24
550;-172;-24
551;-180;-24
552;-168;-24
553;-168;-24
554;-168;-24
555;-164;-24
556;-164;-24
557;-160;-24
558;-152;-24
559;-160;-28
560;-160;-24
561;-160;-24
562;-160;-24
563;-156;-24
564;-156;-24
565;-156;-24
566;-156;-24
567;-152;-24
568;-152;-24
569;-152;-24
570;-148;-24
571;-148;-24
572;-144;-24
573;-144;-24
574;-148;-24
575;-144;-24
576;-140;-24
577;-140;-24
578;-140;-24
579;-140;-28
580;-136;-28
581;-132;-28
582;-132;-32
583;-132;-32
584;-132;-32
585;-128;-32
586;-136;-36
587;-124;-40
588;-124;-40
589;-124;-40
590;-120;-40
591;-116;-40
592;-116;-44
593;-124;-44
594;-112;-44
595;-112;12
596;-112;12
597;-108;12
598;-104;8
599;-104;12
600;-80;8
601;-100;12
602;-96;12
603;-96;12
604;-92;12
605;-88;16
606;-88;20
607;-88;20
608;-84;20
609;-84;24
610;-84;28
611;-80;32
612;-84;32
613;-76;36
614;-72;36
615;-72;40
616;-68;40
617;-68;44
618;-64;44
619;-64;48
620;-60;48
621;-60;48
622;-60;48
623;-56;48
624;-52;48
625;-48;48
626;-44;48
627;-44;44
628;-44;48
629;-40;44
630;-40;44
631;-36;44
632;-36;44
633;-40;44
634;-32;40
635;-24;40
636;-28;40
637;-24;40
638;-20;40
639;-20;40
640;-24;40
641;-12;36
642;-12;36
643;-8;40
644;-8;36
645;-4;36
646;-4;36
647;0;40
648;0;36
649;4;36
650;0;36
651;8;36
652;12;36
653;12;32
654;20;32
655;16;32
656;20;36
657;20;32
658;20;32
659;28;36
660;28;32
661;36;36
662;28;36
663;32;36
664;36;36
665;36;36
666;40;32
667;44;32
668;52;32
669;48;32
670;48;32
671;48;28
672;52;28
673;52;28
674;56;28
675;40;24
676;60;24
677;64;24
678;64;20
679;68;20
680;64;16
681;72;16
682;64;12
683;76;12
684;80;12
685;76;12
686;80;12
687;88;8
688;84;12
689;88;8
690;88;12
691;88;12
692;96;12
693;96;16
694;96;16
695;100;20
696;100;20
697;100;24
698;100;28
699;104;32
700;104;32
701;112;36
702;112;40
703;116;40
704;116;40
705;116;44
706;120;40
707;120;44
708;128;44
709;128;44
710;128;48
711;128;48
712;132;48
713;132;44
714;132;44
715;140;48
716;136;44
717;136;44
718;140;44
719;140;44
720;140;44
721;144;44
722;136;40
723;144;44
724;148;40
725;148;40
726;148;40
727;152;40
728;152;40
729;148;40
730;156;40
731;156;36
732;156;40
733;160;36
734;164;36
735;160;40
736;160;40
737;164;36
738;168;36
739;168;32
740;168;36
741;172;36
742;168;32
743;176;36
744;172;36
745;172;36
746;176;36
747;176;32
748;180;32
749;176;36
750;200;36
751;180;36
752;180;36
753;184;36
754;180;32
755;180;32
756;180;36
757;180;32
758;184;32
759;184;32
760;188;32
761;184;36
762;180;36
763;188;36
764;188;32
765;188;36
766;184;32
767;188;32
768;188;32
769;188;32
770;188;32
771;188;28
772;188;32
773;188;28
774;188;24
775;192;24
776;192;20
777;192;20
778;192;20
779;192;16
780;192;12
781;192;12
782;192;12
783;192;12
784;192;12
785;192;8
786;192;8
787;192;8
788;192;8
789;192;8
790;196;8
791;192;8
792;192;12
793;192;16
794;188;16
795;192;20
796;188;24
797;188;24
798;188;28
799;188;32
800;188;36
801;188;36
802;188;40
803;184;40
804;180;16
805;184;16
806;184;16
807;188;20
808;184;16
809;184;20
810;180;20
811;180;20
812;180;20
813;184;20
814;180;20
815;180;20
816;180;16
817;176;16
818;176;16
819;176;16
820;176;16
821;176;16
822;172;12
823;172;16
824;168;12
825;168;12
826;168;12
827;168;12
828;164;12
829;164;12
830;168;8
831;164;8
832;184;8
833;160;8
834;160;8
835;160;8
836;156;8
837;156;8
838;152;8
839;156;8
840;152;4
841;152;8
842;148;8
843;148;8
844;144;8
845;144;8
846;144;8
847;144;4
848;140;4
849;140;8
850;140;4
851;128;4
852;136;0
853;132;4
854;132;0
855;132;-4
856;128;-4
857;124;-8
858;120;-8
859;124;-12
860;120;-12
861;120;-12
862;116;-16
863;116;-16
864;112;-16
865;112;-16
866;108;-20
867;108;-20
868;108;-20
869;104;-20
870;100;-20
871;100;-20
872;88;-16
873;92;-16
874;96;-12
875;92;-8
876;88;-4
877;88;0
878;88;0
879;80;8
880;80;8
881;80;8
882;76;12
883;76;12
884;72;16
885;72;16
886;72;20
887;68;20
888;64;20
889;64;20
890;60;20
891;60;16
892;56;16
893;60;16
894;52;16
895;52;16
896;48;16
897;44;12
898;44;12
899;40;12
900;40;12
901;36;12
902;36;12
903;32;12
904;28;12
905;24;8
906;24;12
907;24;8
908;20;8
909;20;8
910;16;8
911;12;8
912;12;8
913;8;8
914;-16;8
915;4;8
916;4;8
917;0;8
918;0;8
919;-8;8
920;-4;8
921;-16;8
922;-8;8
923;-12;8
924;-16;8
925;-16;8
926;-12;4
927;-20;8
928;-20;8
929;-20;4
930;-28;4
931;-28;4
932;-32;0
933;-32;0
934;-36;-4
935;-36;-4
936;-40;-4
937;-40;-8
938;-44;-8
939;-48;-12
940;-44;-12
941;-52;-16
942;-52;-16
943;-56;-16
944;-56;-16
945;-60;-20
946;-60;-20
947;-56;-20
948;-64;-20
949;-68;-20
950;-68;-20
951;-72;-16
952;-72;-16
953;-76;-12
954;-68;-12
955;-80;-8
956;-80;-8
957;-84;-4
958;-84;0
959;-88;0
960;-88;0
961;-96;4
962;-92;8
963;-92;8
964;-96;12
965;-100;16
966;-100;16
967;-100;16
968;-112;16
969;-104;16
970;-108;16
971;-112;16
972;-112;20
973;-112;20
974;-116;20
975;-120;16
976;-120;16
977;-120;16
978;-120;16
979;-120;16
980;-124;16
981;-128;12
982;-124;12
983;-132;12
984;-132;12
985;-132;12
986;-136;12
987;-132;12
988;-136;12
989;-116;12
990;-140;8
991;-140;8
992;-144;8
993;-148;8
994;-148;8
995;-148;8
996;-144;8
997;-148;8
998;-152;8
999;-152;8
1000;-152;8
1001;-160;4
1002;-156;8
1003;-156;4
1004;-160;8
1005;-160;8
1006;-160;8
1007;-160;8
1008;-168;8
1009;-164;8
1010;-164;8
1011;-168;8
1012;-164;4
1013;-168;0
1014;-168;0
1015;-172;0
1016;-168;0
1017;-168;-4
1018;-172;-4
1019;-172;-8
1020;-172;-8
1021;-172;-12
1022;-172;-12
1023;-176;-16
1024;-176;-16
1025;-176;-16
1026;-176;-20
1027;-176;-20
1028;-176;-20
1029;-188;-20
1030;-176;-20
1031;-180;-24
1032;-180;-24
1033;-180;-24
1034;-180;-24
1035;-180;-24
1036;-168;-24
1037;-180;-20
1038;-180;-20
1039;-180;-16
1040;-180;-12
1041;-180;-12
1042;-180;-12
1043;-180;-8
1044;-180;-4
1045;-180;-4
1046;-184;0
1047;-180;0
1048;-180;4
1049;-180;8
1050;-176;8
1051;-180;8
1052;-180;12
1053;-180;12
1054;-176;12
1055;-176;12
1056;-180;12
1057;-180;12
1058;-176;12
1059;-176;12
1060;-176;12
1061;-176;16
1062;-176;12
1063;-172;12
1064;-184;12
1065;-172;12
1066;-172;12
1067;-168;8
1068;-168;12
1069;-168;8
1070;-168;8
1071;-176;8
1072;-168;8
1073;-164;8
1074;-164;4
1075;-164;4
1076;-160;8
1077;-164;4
1078;-140;4
1079;-160;4
1080;-160;4
1081;-160;4
1082;-156;4
1083;-152;4
1084;-156;4
1085;-152;0
1086;-152;4
1087;-148;4
1088;-148;0
1089;-148;4
1090;-152;4
1091;-144;0
1092;-144;0
1093;-140;0
1094;-140;4
1095;-140;0
1096;-140;0
1097;-136;4
1098;-136;0
1099;-132;0
1100;-132;0
1101;-132;0
1102;-128;0
1103;-124;0
1104;-124;0
1105;-124;0
1106;-124;0
1107;-120;0
1108;-120;0
1109;-120;0
1110;-116;-4
1111;-120;-4
1112;-112;-4
1113;-108;-4
1114;-108;-8
1115;-104;-8
1116;-104;-8
1117;-104;-12
1118;-108;-12
1119;-100;-12
1120;-96;-16
1121;-96;-16
1122;-96;-20
1123;-88;-20
1124;-88;-20
1125;-88;-20
1126;-88;-24
1127;-84;-24
1128;-80;-24
1129;-80;-24
1130;-76;-24
1131;-72;-24
1132;-68;-24
1133;-68;-20
1134;-72;-20
1135;-64;-16
1136;-64;-12
1137;-60;-12
1138;-60;-8
1139;-52;-4
1140;-56;-4
1141;-56;-4
1142;-48;0
1143;-48;4
1144;-52;4
1145;-48;8
1146;-36;8
1147;-40;12
1148;-40;12
1149;-36;12
1150;-32;12
1151;-32;12
1152;-28;12
1153;-52;16
1154;-28;12
1155;-20;16
1156;-20;16
1157;-16;12
1158;-16;16
1159;-12;8
1160;-24;12
1161;-8;8
1162;-4;8
1163;-8;8
1164;-4;8
1165;8;8
1166;0;8
1167;4;8
1168;8;8
1169;8;8
1170;12;8
1171;12;4
1172;12;4
1173;20;4
1174;20;4
1175;20;4
1176;24;4
1177;24;4
1178;28;4
1179;28;4
1180;32;0
1181;36;4
1182;36;0
1183;36;4
1184;40;4
1185;44;4
1186;52;4
1187;48;0
1188;52;0
1189;52;0
1190;56;0
1191;56;0
1192;60;0
1193;64;0
1194;64;4
1195;64;0
1196;68;4
1197;68;0
1198;72;0
1199;72;4
1200;64;0
1201;80;0
1202;76;0
1203;80;0
1204;84;0
1205;84;0
1206;88;-4
1207;84;-8
1208;92;-8
1209;92;-8
1210;96;-8
1211;96;-12
1212;100;-12
1213;100;-12
1214;108;-16
1215;104;-16
1216;104;-20
1217;108;-20
1218;112;-20
1219;112;-20
1220;112;20
1221;120;20
1222;116;16
1223;120;16
1224;120;20
1225;124;20
1226;128;20
1227;124;20
1228;144;20
1229;128;20
1230;132;24
1231;132;28
1232;132;28
1233;136;32
1234;140;32
1235;132;36
1236;140;40
1237;140;40
1238;144;44
1239;144;48
1240;140;48
1241;148;52
1242;152;48
1243;152;52
1244;152;56
1245;156;52
1246;152;56
1247;156;56
1248;160;56
1249;160;56
1250;160;56
1251;164;56
1252;164;56
1253;164;56
1254;168;56
1255;168;56
1256;168;52
1257;172;56
1258;172;48
1259;172;52
1260;176;48
1261;172;52
1262;176;48
1263;176;48
1264;176;44
1265;176;48
1266;180;48
1267;180;48
1268;172;48
1269;180;44
1270;184;44
1271;184;44
1272;184;44
1273;184;44
1274;184;44
1275;200;44
1276;184;44
1277;188;48
1278;188;44
1279;188;44
1280;188;44
1281;192;44
1282;188;48
1283;188;44
1284;192;44
1285;192;44
1286;192;44
1287;192;44
1288;196;44
1289;192;44
1290;196;44
1291;196;44
1292;196;44
1293;196;44
1294;196;44
1295;192;44
1296;188;40
1297;196;40
1298;196;40
1299;192;40
1300;192;36
1301;196;32
1302;196;36
1303;180;32
1304;192;32
1305;192;28
1306;192;28
1307;192;24
1308;196;20
1309;192;24
1310;192;20
1311;192;20
1312;192;20
1313;192;16
1314;192;20
1315;192;16
1316;192;20
1317;208;16
1318;188;20
1319;188;24
1320;188;24
1321;184;28
1322;188;28
1323;188;28
1324;188;32
1325;184;32
1326;184;36
1327;184;40
1328;184;40
1329;176;44
1330;180;48
1331;184;48
1332;180;48
1333;180;52
1334;176;52
1335;180;56
1336;172;56
1337;176;56
1338;176;56
1339;176;56
1340;176;56
1341;172;56
1342;172;56
1343;172;52
1344;168;52
1345;168;52
1346;164;52
1347;164;52
1348;164;52
1349;164;52
1350;148;48
1351;160;52
1352;160;52
1353;160;48
1354;156;48
1355;160;48
1356;156;48
1357;160;48
1358;152;44
1359;148;48
1360;148;44
1361;148;44
1362;148;44
1363;144;44
1364;144;44
1365;140;44
1366;140;44
1367;136;44
1368;140;44
1369;136;44
1370;132;40
1371;140;44
1372;128;44
1373;128;44
1374;128;44
1375;128;44
1376;124;44
1377;120;44
1378;124;44
1379;120;44
1380;116;44
1381;116;40
1382;112;44
1383;108;44
1384;108;44
1385;108;44
1386;108;44
1387;104;44
1388;100;44
1389;96;44
1390;96;40
1391;96;40
1392;72;44
1393;92;40
1394;88;40
1395;88;36
1396;88;36
1397;80;36
1398;80;32
1399;72;32
1400;76;28
1401;72;28
1402;72;24
1403;72;24
1404;80;24
1405;68;24
1406;64;20
1407;64;20
1408;60;20
1409;60;20
1410;60;16
1411;52;16
1412;52;16
1413;52;16
1414;48;20
1415;44;20
1416;44;20
1417;40;24
1418;40;24
1419;36;28
1420;36;28
1421;28;32
1422;32;36
1423;28;40
1424;24;44
1425;28;44
1426;20;48
1427;20;48
1428;20;52
1429;12;-12
1430;12;-12
1431;12;-8
1432;8;-8
1433;4;-8
1434;4;-8
1435;4;-8
1436;0;-8
1437;-4;-8
1438;-4;-12
1439;-16;-12
1440;-12;-12
1441;-12;-12
1442;-12;-12
1443;-16;-12
1444;-16;-12
1445;-20;-12
1446;-28;-12
1447;-24;-16
1448;-28;-16
1449;-32;-16
1450;-32;-16
1451;-36;-16
1452;-36;-16
1453;-32;-20
1454;-40;-16
1455;-44;-20
1456;-44;-16
1457;-44;-20
1458;-48;-16
1459;-52;-20
1460;-48;-20
1461;-52;-20
1462;-56;-20
1463;-60;-20
1464;-60;-20
1465;-64;-20
1466;-64;-20
1467;-56;-20
1468;-72;-20
1469;-72;-20
1470;-72;-20
1471;-76;-20
1472;-80;-20
1473;-80;-20
1474;-100;-24
1475;-84;-20
1476;-88;-24
1477;-88;-20
1478;-92;-20
1479;-96;-20
1480;-92;-20
1481;-108;-20
1482;-96;-20
1483;-100;-20
1484;-100;-20
1485;-104;-20
1486;-100;-20
1487;-108;-24
1488;-108;-24
1489;-112;-28
1490;-112;-24
1491;-116;-28
1492;-116;-28
1493;-116;-32
1494;-120;-32
1495;-124;-36
1496;-124;-40
1497;-124;-40
1498;-128;-40
1499;-128;-40
1500;-128;-40
1501;-132;-44
1502;-132;-44
1503;-136;-44
1504;-136;-44
1505;-136;-44
1506;-136;-44
1507;-136;-44
1508;-140;-44
1509;-144;-40
1510;-144;-44
1511;-148;-36
1512;-148;-32
1513;-148;-32
1514;-140;-28
1515;-152;-24
1516;-152;-20
1517;-152;-16
1518;-152;-16
1519;-156;-16
1520;-156;-12
1521;-160;-12
1522;-160;-8
1523;-160;-8
1524;-160;-8
1525;-160;-8
1526;-164;-12
1527;-164;-8
1528;-168;-12
1529;-168;-8
1530;-164;-12
1531;-168;-12
1532;-168;-12
1533;-168;-12
1534;-172;-12
1535;-172;-12
1536;-172;-16
1537;-172;-16
1538;-172;-12
1539;-172;-16
1540;-172;-16
1541;-172;-16
1542;-180;-16
1543;-176;-20
1544;-176;-16
1545;-176;-16
1546;-180;-16
1547;-176;-20
1548;-180;-20
1549;-160;-20
1550;-180;-20
1551;-180;-16
1552;-180;-20
1553;-184;-20
1554;-180;-20
1555;-180;-20
1556;-172;-20
1557;-180;-20
1558;-180;-20
1559;-180;-20
1560;-180;-20
1561;-184;-20
1562;-184;-20
1563;-184;-20
1564;-184;-20
1565;-180;-20
1566;-180;-20
1567;-184;-20
1568;-192;-20
1569;-184;-24
1570;-180;-24
1571;-180;-20
1572;-180;-24
1573;-180;-24
1574;-180;-24
1575;-180;-28
1576;-180;-28
1577;-180;-28
1578;-176;-32
1579;-176;-32
1580;-176;-36
1581;-176;-36
1582;-172;-36
1583;-172;-40
1584;-172;-40
1585;-172;-40
1586;-168;-44
1587;-172;-44
1588;-168;-44
1589;-176;-40
1590;-168;-48
1591;-168;-48
1592;-164;-44
1593;-164;-44
1594;-164;-44
1595;-160;-40
1596;-168;-40
1597;-160;-40
1598;-160;-36
1599;-156;-36
1600;-160;-32
1601;-156;-28
1602;-156;-24
1603;-152;-24
1604;-156;-20
1605;-152;-20
1606;-152;-16
1607;-148;-16
1608;-148;-12
1609;-144;-12
1610;-140;-12
1611;-144;-12
1612;-144;-8
1613;-140;-8
1614;-140;-8
1615;-136;-8
1616;-140;-8
1617;-132;-8
1618;-136;-8
1619;-132;-8
1620;-128;-12
1621;-128;-12
1622;-128;-12
1623;-128;-12
1624;-124;-12
1625;-120;-12
1626;-120;-16
1627;-120;-16
1628;-116;-16
1629;-120;-20
1630;-116;-16
1631;-136;-16
1632;-112;-16
1633;-108;-16
1634;-104;-12
1635;-104;-16
1636;-108;-16
1637;-100;36
1638;-112;40
1639;-96;36
1640;-92;36
1641;-92;36
1642;-88;32
1643;-80;32
1644;-88;32
1645;-88;28
1646;-80;28
1647;-80;24
1648;-80;24
1649;-76;20
1650;-72;20
1651;-72;16
1652;-68;20
1653;-68;16
1654;-64;12
1655;-64;12
1656;-60;12
1657;-60;12
1658;-56;12
1659;-56;8
1660;-52;12
1661;-52;12
1662;-48;12
1663;-44;16
1664;-40;16
1665;-40;20
1666;-40;20
1667;-36;24
1668;-36;28
1669;-32;32
1670;-32;36
1671;-16;36
1672;-24;40
1673;-24;44
1674;-24;44
1675;-20;48
1676;-20;44
1677;-16;48
1678;-16;48
1679;-12;48
1680;-8;48
1681;-4;48
1682;-4;48
1683;0;44
1684;0;44
1685;0;44
1686;4;44
1687;8;44
1688;8;44
1689;12;44
1690;12;44
