LAB_2/Oscillometer_Data/data_16_031.csv

Column1;Column2;Column3
Channel              :;CH1;CH2
Frequency            :;109,0Hz;109,4Hz
Period               :;9,175ms;9,137ms
PK-PK                :;704,0mV;144,0mV
Probe attenuation    :;1X;1X
Voltage per ADC value:;0,500000mV;0,500000mV
Time interval        :;10,00000uS;10,00000uS
;;
index;CH1_Voltage(mV);CH2_Voltage(mV)
1;96;16
2;96;16
3;96;16
4;96;16
5;96;16
6;88;16
7;88;16
8;88;16
9;88;16
10;88;16
11;80;16
12;80;16
13;80;16
14;72;16
15;72;16
16;72;16
17;72;16
18;72;8
19;64;16
20;56;16
21;64;24
22;56;16
23;56;16
24;72;16
25;48;16
26;48;16
27;48;16
28;48;16
29;40;16
30;40;16
31;40;8
32;32;8
33;32;8
34;32;0
35;32;0
36;16;0
37;24;0
38;24;0
39;16;0
40;16;0
41;8;-8
42;16;-8
43;0;-16
44;8;-8
45;8;-8
46;0;-8
47;0;-8
48;0;-8
49;0;-16
50;-8;-8
51;-8;0
52;-8;0
53;-8;0
54;-16;8
55;-16;16
56;-16;8
57;-24;8
58;-24;16
59;-24;24
60;-32;24
61;-32;24
62;-32;24
63;-32;24
64;-48;24
65;-32;24
66;-40;32
67;-40;32
68;-48;24
69;-48;24
70;-48;24
71;-48;24
72;-48;32
73;-56;24
74;-56;24
75;-64;24
76;-56;24
77;-64;24
78;-64;24
79;-72;24
80;-72;24
81;-72;24
82;-80;16
83;-72;16
84;-80;24
85;-72;16
86;-88;16
87;-88;24
88;-88;16
89;-88;16
90;-96;24
91;-88;16
92;-96;16
93;-96;16
94;-104;16
95;-104;16
96;-104;16
97;-112;16
98;-104;16
99;-112;16
100;-112;16
101;-112;16
102;-112;16
103;-120;16
104;-120;16
105;-120;16
106;-144;16
107;-128;16
108;-128;8
109;-128;16
110;-136;8
111;-136;8
112;-136;8
113;-144;8
114;-144;8
115;-136;0
116;-144;0
117;-152;0
118;-136;0
119;-152;-8
120;-152;0
121;-160;-8
122;-152;-8
123;-160;-8
124;-160;-8
125;-168;-8
126;-168;-8
127;-168;-16
128;-176;-8
129;-168;-8
130;-176;-8
131;-176;-8
132;-176;-8
133;-184;0
134;-176;0
135;-184;0
136;-184;0
137;-184;8
138;-184;8
139;-192;16
140;-192;16
141;-192;16
142;-192;16
143;-192;24
144;-200;24
145;-200;24
146;-200;24
147;-208;24
148;-208;24
149;-208;24
150;-208;24
151;-216;24
152;-208;24
153;-216;24
154;-216;24
155;-216;24
156;-216;24
157;-224;24
158;-224;32
159;-224;24
160;-232;24
161;-224;24
162;-232;24
163;-232;24
164;-232;16
165;-232;24
166;-232;24
167;-232;16
168;-240;24
169;-240;16
170;-240;16
171;-248;16
172;-240;16
173;-248;16
174;-240;16
175;-248;16
176;-248;16
177;-248;24
178;-256;16
179;-248;16
180;-256;16
181;-240;72
182;-264;72
183;-264;72
184;-264;64
185;-264;64
186;-264;64
187;-264;64
188;-272;64
189;-272;64
190;-272;56
191;-272;56
192;-272;56
193;-280;48
194;-272;48
195;-272;48
196;-280;48
197;-280;48
198;-280;48
199;-280;48
200;-288;40
201;-288;40
202;-288;48
203;-280;40
204;-280;40
205;-296;48
206;-288;48
207;-288;48
208;-288;48
209;-288;48
210;-296;56
211;-296;56
212;-296;56
213;-296;64
214;-296;64
215;-296;64
216;-296;72
217;-296;72
218;-304;72
219;-296;72
220;-304;72
221;-312;72
222;-304;80
223;-304;80
224;-304;80
225;-304;80
226;-304;80
227;-304;80
228;-296;80
229;-304;80
230;-312;80
231;-312;80
232;-312;80
233;-312;80
234;-312;80
235;-312;72
236;-312;80
237;-312;80
238;-312;80
239;-320;72
240;-320;72
241;-312;72
242;-320;80
243;-320;72
244;-312;72
245;-320;72
246;-320;72
247;-320;72
248;-320;64
249;-320;64
250;-320;72
251;-320;72
252;-320;72
253;-320;72
254;-328;64
255;-320;72
256;-328;72
257;-320;72
258;-320;72
259;-320;64
260;-320;72
261;-312;72
262;-320;72
263;-328;72
264;-320;64
265;-320;72
266;-320;64
267;-320;64
268;-320;64
269;-320;64
270;-304;64
271;-320;64
272;-320;64
273;-320;64
274;-320;64
275;-312;64
276;-312;56
277;-320;56
278;-320;48
279;-320;48
280;-320;48
281;-320;48
282;-328;48
283;-320;48
284;-312;40
285;-312;40
286;-320;48
287;-312;40
288;-312;40
289;-320;48
290;-320;48
291;-312;48
292;-320;48
293;-312;56
294;-312;56
295;-312;64
296;-312;64
297;-312;64
298;-312;64
299;-312;72
300;-312;72
301;-312;80
302;-312;72
303;-312;80
304;-312;80
305;-304;80
306;-304;80
307;-312;80
308;-304;80
309;-312;80
310;-312;80
311;-304;80
312;-304;80
313;-304;72
314;-304;80
315;-304;72
316;-304;80
317;-304;72
318;-304;72
319;-304;80
320;-296;72
321;-296;72
322;-288;72
323;-296;72
324;-296;72
325;-296;72
326;-288;72
327;-296;72
328;-296;72
329;-288;72
330;-288;72
331;-280;72
332;-280;72
333;-288;72
334;-288;72
335;-280;72
336;-280;72
337;-280;72
338;-264;72
339;-280;64
340;-280;64
341;-280;72
342;-272;64
343;-272;72
344;-272;64
345;-280;64
346;-264;64
347;-264;72
348;-272;64
349;-264;72
350;-264;64
351;-264;64
352;-272;72
353;-264;72
354;-256;72
355;-256;72
356;-256;64
357;-248;64
358;-248;72
359;-248;72
360;-248;64
361;-248;64
362;-248;64
363;-240;64
364;-240;64
365;-248;64
366;-240;64
367;-240;64
368;-232;56
369;-232;56
370;-232;56
371;-232;48
372;-232;48
373;-224;48
374;-224;48
375;-224;48
376;-224;40
377;-224;40
378;-216;40
379;-216;48
380;-216;40
381;-208;40
382;-208;40
383;-208;48
384;-208;48
385;-192;48
386;-200;48
387;-200;48
388;-200;56
389;-200;24
390;-192;24
391;-192;32
392;-192;32
393;-184;32
394;-192;32
395;-184;40
396;-184;40
397;-184;40
398;-176;48
399;-176;40
400;-176;48
401;-168;48
402;-168;48
403;-168;48
404;-168;48
405;-168;48
406;-168;48
407;-160;48
408;-160;48
409;-152;40
410;-152;40
411;-152;40
412;-152;40
413;-160;40
414;-144;40
415;-144;40
416;-136;40
417;-136;40
418;-136;40
419;-136;40
420;-120;40
421;-128;40
422;-128;40
423;-120;40
424;-120;40
425;-120;40
426;-112;40
427;-104;32
428;-112;32
429;-112;32
430;-104;32
431;-112;32
432;-104;32
433;-104;32
434;-96;32
435;-96;32
436;-96;32
437;-88;40
438;-88;40
439;-96;32
440;-88;32
441;-88;32
442;-80;40
443;-80;32
444;-80;32
445;-80;32
446;-72;32
447;-72;32
448;-72;32
449;-72;32
450;-64;32
451;-64;24
452;-64;32
453;-56;24
454;-56;24
455;-56;24
456;-48;24
457;-48;24
458;-48;24
459;-40;16
460;-56;16
461;-40;8
462;-40;16
463;-40;16
464;-32;8
465;-32;8
466;-32;16
467;-32;8
468;-24;8
469;-24;8
470;-24;8
471;-16;16
472;-16;16
473;-16;16
474;-8;24
475;-8;24
476;-8;24
477;-8;32
478;0;40
479;0;40
480;0;40
481;8;40
482;0;40
483;8;48
484;16;48
485;16;48
486;16;48
487;16;48
488;24;48
489;24;48
490;24;48
491;24;40
492;32;48
493;32;48
494;32;40
495;32;48
496;32;40
497;40;40
498;40;40
499;48;40
500;48;32
501;48;40
502;32;40
503;56;40
504;56;40
505;56;40
506;56;32
507;48;40
508;64;32
509;56;40
510;72;40
511;72;32
512;72;40
513;80;32
514;88;32
515;80;40
516;80;32
517;88;32
518;88;40
519;88;32
520;88;32
521;88;40
522;96;40
523;96;32
524;96;40
525;104;32
526;96;32
527;104;32
528;112;32
529;104;32
530;112;32
531;112;32
532;112;32
533;120;32
534;120;32
535;128;32
536;120;40
537;128;32
538;128;32
539;128;32
540;128;32
541;136;32
542;144;32
543;136;24
544;136;24
545;144;24
546;144;24
547;144;16
548;144;24
549;144;16
550;144;16
551;152;16
552;152;16
553;152;8
554;160;8
555;160;8
556;160;8
557;168;8
558;168;8
559;168;8
560;168;8
561;176;0
562;176;16
563;168;16
564;184;16
565;176;16
566;184;24
567;184;24
568;184;24
569;184;32
570;192;40
571;192;40
572;192;40
573;192;48
574;192;40
575;200;48
576;200;48
577;224;48
578;200;48
579;200;48
580;208;48
581;200;48
582;208;48
583;208;48
584;216;40
585;216;40
586;216;40
587;216;40
588;224;40
589;208;40
590;224;40
591;224;40
592;224;40
593;224;40
594;232;40
595;232;40
596;232;40
597;232;40
598;240;-16
599;232;-16
600;240;-24
601;240;-24
602;240;-24
603;240;-24
604;240;-24
605;248;-32
606;248;-24
607;248;-32
608;248;-32
609;248;-32
610;256;-40
611;248;-40
612;256;-40
613;256;-40
614;256;-40
615;256;-40
616;256;-48
617;248;-48
618;264;-48
619;264;-48
620;264;-48
621;264;-40
622;264;-48
623;264;-48
624;280;-40
625;272;-40
626;272;-40
627;272;-40
628;280;-32
629;280;-32
630;272;-32
631;280;-24
632;280;-32
633;272;-24
634;280;-24
635;280;-16
636;288;-16
637;280;-16
638;288;-16
639;288;-16
640;288;-16
641;296;-8
642;288;-16
643;288;-16
644;296;-16
645;288;-8
646;296;-8
647;296;-8
648;296;-16
649;296;-16
650;296;-16
651;304;-16
652;288;-16
653;304;-16
654;304;-16
655;304;-16
656;304;-16
657;304;-16
658;304;-16
659;296;-16
660;304;-16
661;304;-24
662;312;-16
663;312;-16
664;312;-24
665;312;-24
666;336;-24
667;312;-24
668;312;-16
669;320;-24
670;320;-24
671;320;-16
672;320;-16
673;320;-24
674;312;-24
675;320;-24
676;320;-24
677;320;-24
678;312;-24
679;320;-24
680;320;-24
681;320;-24
682;328;-24
683;320;-24
684;328;-24
685;320;-24
686;328;-24
687;320;-24
688;328;-24
689;328;-24
690;328;-24
691;328;-24
692;328;-24
693;328;-24
694;328;-24
695;328;-24
696;328;-24
697;328;-24
698;328;-24
699;320;-32
700;328;-32
701;336;-32
702;336;-40
703;336;-40
704;328;-40
705;328;-40
706;344;-40
707;328;-40
708;336;-40
709;336;-40
710;336;-40
711;336;-48
712;336;-48
713;336;-48
714;328;-48
715;336;-48
716;336;-48
717;336;-40
718;336;-40
719;336;-40
720;344;-40
721;336;-40
722;336;-40
723;336;-32
724;336;-32
725;336;-32
726;336;-24
727;336;-24
728;328;-24
729;336;-24
730;336;-16
731;336;-16
732;328;-16
733;328;-8
734;336;-16
735;336;-16
736;328;-8
737;336;-16
738;336;-8
739;328;-16
740;336;-16
741;312;-16
742;336;-16
743;328;-16
744;328;-16
745;336;-16
746;320;-16
747;328;-16
748;320;-16
749;328;-16
750;328;-16
751;328;-16
752;328;-16
753;328;-16
754;328;-16
755;328;-16
756;320;-16
757;328;-24
758;328;-16
759;328;-16
760;328;-24
761;320;-24
762;320;-24
763;320;-16
764;320;-24
765;320;-24
766;320;-24
767;320;-24
768;320;-24
769;312;-24
770;320;-24
771;320;-24
772;320;-24
773;312;-24
774;312;-24
775;312;-16
776;312;-24
777;312;-24
778;312;-16
779;312;-24
780;312;-24
781;328;-24
782;304;-24
783;304;-24
784;312;-24
785;304;-24
786;304;-24
787;304;-32
788;304;-24
789;304;-24
790;304;-32
791;296;-32
792;296;-32
793;296;-40
794;296;-32
795;296;-32
796;304;-40
797;296;-40
798;288;-40
799;296;-48
800;288;-48
801;288;-40
802;288;-48
803;288;-40
804;288;-48
805;288;-48
806;280;-40
807;288;-40
808;288;-40
809;272;-32
810;280;-32
811;280;-32
812;272;-32
813;280;-32
814;280;-24
815;272;-24
816;280;-24
817;272;-16
818;272;-16
819;264;-8
820;264;-16
821;272;-16
822;264;-8
823;272;-8
824;264;-8
825;264;0
826;264;-8
827;264;0
828;256;-8
829;264;0
830;256;-8
831;256;0
832;248;-8
833;248;-8
834;256;-8
835;240;-8
836;248;-8
837;248;-8
838;248;-8
839;240;-8
840;240;-8
841;240;-8
842;240;-16
843;240;-8
844;232;-8
845;232;-8
846;232;-8
847;224;-8
848;224;-16
849;232;-8
850;224;-8
851;224;-8
852;224;-16
853;224;-16
854;216;-16
855;216;-16
856;208;-16
857;216;-8
858;216;-16
859;216;-16
860;216;-16
861;208;-16
862;208;-16
863;208;-16
864;200;-24
865;200;-16
866;200;-16
867;200;-16
868;200;-16
869;192;-16
870;200;-16
871;192;-16
872;184;-16
873;184;-16
874;184;-16
875;184;-16
876;184;-16
877;184;-24
878;176;-16
879;176;-16
880;176;-16
881;168;-24
882;168;-16
883;168;-16
884;168;-24
885;160;-24
886;160;-24
887;160;-24
888;160;-32
889;160;-32
890;152;-32
891;152;-32
892;152;-32
893;152;-32
894;152;-40
895;144;-40
896;136;-32
897;136;-40
898;112;-40
899;136;-40
900;136;-40
901;136;-40
902;136;-40
903;128;-40
904;128;-32
905;120;-40
906;128;-32
907;128;-32
908;120;-24
909;120;-24
910;120;-24
911;112;-16
912;112;-24
913;112;-16
914;112;-16
915;104;-8
916;104;-16
917;104;-8
918;96;-8
919;96;-8
920;96;-8
921;96;-8
922;88;-8
923;88;0
924;88;0
925;88;-8
926;80;0
927;80;0
928;80;-8
929;72;0
930;80;-8
931;80;-8
932;72;-8
933;72;-8
934;72;-8
935;64;-8
936;56;-8
937;56;-8
938;64;-8
939;56;-8
940;56;-16
941;56;-16
942;48;-16
943;48;-8
944;40;-8
945;32;-16
946;40;-16
947;40;-8
948;40;-16
949;32;-8
950;32;-16
951;24;-16
952;24;-16
953;24;-16
954;24;-16
955;24;-16
956;16;-16
957;16;-16
958;16;-16
959;8;-16
960;8;-16
961;0;-16
962;0;-16
963;0;-16
964;0;-16
965;0;-16
966;0;-16
967;-8;-16
968;-8;-16
969;-8;-16
970;-8;-16
971;-8;-16
972;-16;-16
973;0;-16
974;-24;-16
975;-24;-16
976;-24;-24
977;-32;-16
978;-32;-16
979;-32;-24
980;-32;-24
981;-40;-24
982;-40;-24
983;-40;-24
984;-40;-32
985;-48;-32
986;-48;-32
987;-40;-32
988;-56;-32
989;-56;-40
990;-56;-40
991;-56;-40
992;-64;-40
993;-56;-40
994;-64;-40
995;-64;-40
996;-64;-40
997;-72;-40
998;-72;-40
999;-72;-32
1000;-80;-40
1001;-80;-32
1002;-88;-32
1003;-80;-32
1004;-80;-24
1005;-88;-24
1006;-88;-24
1007;-96;-16
1008;-104;-16
1009;-96;-8
1010;-96;-8
1011;-96;-8
1012;-104;-8
1013;-112;-8
1014;-104;64
1015;-112;56
1016;-112;64
1017;-112;64
1018;-112;64
1019;-112;64
1020;-104;64
1021;-120;64
1022;-120;56
1023;-128;64
1024;-128;64
1025;-128;56
1026;-128;56
1027;-136;56
1028;-136;56
1029;-136;56
1030;-136;56
1031;-136;56
1032;-144;56
1033;-144;56
1034;-144;48
1035;-144;56
1036;-144;56
1037;-152;56
1038;-152;48
1039;-152;48
1040;-160;56
1041;-168;56
1042;-160;56
1043;-160;48
1044;-160;56
1045;-168;56
1046;-168;48
1047;-176;48
1048;-184;48
1049;-176;48
1050;-176;48
1051;-176;48
1052;-176;48
1053;-176;48
1054;-184;48
1055;-176;48
1056;-184;40
1057;-184;48
1058;-184;48
1059;-192;48
1060;-200;48
1061;-200;48
1062;-192;40
1063;-200;40
1064;-200;40
1065;-200;40
1066;-208;40
1067;-216;32
1068;-208;32
1069;-208;32
1070;-208;32
1071;-216;24
1072;-216;24
1073;-216;24
1074;-224;24
1075;-224;24
1076;-224;32
1077;-224;16
1078;-224;24
1079;-232;16
1080;-232;32
1081;-232;24
1082;-232;32
1083;-232;32
1084;-232;40
1085;-240;40
1086;-240;40
1087;-240;40
1088;-240;48
1089;-240;48
1090;-248;56
1091;-248;56
1092;-248;56
1093;-248;64
1094;-248;56
1095;-264;56
1096;-256;64
1097;-256;64
1098;-256;56
1099;-256;56
1100;-256;64
1101;-264;56
1102;-256;64
1103;-264;64
1104;-264;64
1105;-264;56
1106;-264;56
1107;-264;56
1108;-264;48
1109;-264;56
1110;-272;56
1111;-272;56
1112;-272;56
1113;-280;56
1114;-280;48
1115;-280;48
1116;-272;56
1117;-280;48
1118;-288;48
1119;-280;48
1120;-280;56
1121;-280;48
1122;-288;48
1123;-288;48
1124;-288;48
1125;-288;48
1126;-288;48
1127;-288;48
1128;-296;56
1129;-288;48
1130;-296;48
1131;-296;48
1132;-296;48
1133;-296;48
1134;-296;48
1135;-296;48
1136;-296;48
1137;-320;48
1138;-296;48
1139;-304;48
1140;-304;48
1141;-304;48
1142;-304;48
1143;-304;48
1144;-296;48
1145;-304;48
1146;-312;48
1147;-304;48
1148;-304;48
1149;-304;48
1150;-312;48
1151;-312;40
1152;-312;40
1153;-312;40
1154;-312;40
1155;-312;40
1156;-312;32
1157;-312;24
1158;-312;32
1159;-312;32
1160;-320;24
1161;-312;24
1162;-312;24
1163;-320;24
1164;-312;24
1165;-312;16
1166;-312;24
1167;-320;24
1168;-320;24
1169;-320;24
1170;-312;24
1171;-312;24
1172;-320;32
1173;-320;32
1174;-320;32
1175;-320;40
1176;-320;40
1177;-320;40
1178;-320;48
1179;-320;48
1180;-320;48
1181;-320;56
1182;-320;56
1183;-320;56
1184;-328;56
1185;-320;56
1186;-320;64
1187;-320;56
1188;-320;64
1189;-320;56
1190;-320;56
1191;-328;64
1192;-320;64
1193;-320;56
1194;-320;64
1195;-320;64
1196;-320;56
1197;-320;56
1198;-320;56
1199;-320;56
1200;-320;56
1201;-320;56
1202;-320;48
1203;-312;56
1204;-320;56
1205;-320;56
1206;-320;56
1207;-320;56
1208;-312;48
1209;-312;56
1210;-312;48
1211;-320;48
1212;-304;48
1213;-312;48
1214;-312;48
1215;-312;48
1216;-312;48
1217;-320;48
1218;-312;56
1219;-320;48
1220;-312;56
1221;-312;48
1222;-312;48
1223;-312;64
1224;-312;56
1225;-304;56
1226;-312;56
1227;-304;56
1228;-304;56
1229;-304;56
1230;-304;48
1231;-296;48
1232;-304;48
1233;-304;48
1234;-296;48
1235;-304;48
1236;-304;40
1237;-296;40
1238;-296;40
1239;-296;40
1240;-296;32
1241;-296;40
1242;-296;32
1243;-296;32
1244;-296;32
1245;-288;32
1246;-288;32
1247;-288;32
1248;-288;32
1249;-288;32
1250;-288;40
1251;-280;40
1252;-280;40
1253;-280;48
1254;-280;48
1255;-280;56
1256;-280;56
1257;-272;64
1258;-272;64
1259;-256;64
1260;-272;64
1261;-272;64
1262;-272;72
1263;-272;64
1264;-264;72
1265;-264;72
1266;-264;72
1267;-264;64
1268;-264;72
1269;-264;72
1270;-256;72
1271;-256;72
1272;-256;64
1273;-256;64
1274;-248;72
1275;-256;64
1276;-248;64
1277;-248;72
1278;-248;64
1279;-240;64
1280;-248;64
1281;-240;64
1282;-232;64
1283;-240;64
1284;-232;64
1285;-232;64
1286;-232;64
1287;-248;64
1288;-224;64
1289;-224;56
1290;-224;64
1291;-224;64
1292;-216;64
1293;-224;56
1294;-216;56
1295;-224;56
1296;-216;56
1297;-216;56
1298;-216;56
1299;-208;56
1300;-208;56
1301;-192;64
1302;-200;64
1303;-200;56
1304;-200;56
1305;-200;56
1306;-200;56
1307;-192;56
1308;-192;56
1309;-192;56
1310;-192;56
1311;-184;56
1312;-184;56
1313;-192;56
1314;-184;56
1315;-176;56
1316;-176;56
1317;-176;56
1318;-176;56
1319;-176;56
1320;-168;48
1321;-168;48
1322;-168;48
1323;-160;48
1324;-160;48
1325;-160;40
1326;-160;40
1327;-152;40
1328;-152;40
1329;-152;40
1330;-152;40
1331;-144;40
1332;-144;32
1333;-144;32
1334;-144;24
1335;-136;32
1336;-136;32
1337;-136;32
1338;-128;32
1339;-128;32
1340;-128;32
1341;-120;40
1342;-120;40
1343;-120;40
1344;-120;48
1345;-112;48
1346;-112;48
1347;-112;48
1348;-104;56
1349;-104;56
1350;-104;64
1351;-104;64
1352;-96;64
1353;-96;64
1354;-96;64
1355;-88;64
1356;-88;72
1357;-88;72
1358;-88;64
1359;-80;64
1360;-80;72
1361;-80;72
1362;-88;72
1363;-80;72
1364;-72;64
1365;-72;72
1366;-72;64
1367;-72;64
1368;-72;72
1369;-72;64
1370;-64;64
1371;-56;64
1372;-56;64
1373;-56;64
1374;-48;64
1375;-56;64
1376;-56;64
1377;-40;64
1378;-40;64
1379;-40;56
1380;-32;64
1381;-32;64
1382;-32;64
1383;-8;64
1384;-32;56
1385;-24;56
1386;-24;56
1387;-24;56
1388;-24;56
1389;-16;64
1390;-16;64
1391;-16;64
1392;-8;56
1393;-8;56
1394;-8;56
1395;-8;64
1396;0;56
1397;0;56
1398;0;56
1399;0;56
1400;8;64
1401;8;56
1402;8;56
1403;16;56
1404;16;56
1405;16;56
1406;16;64
1407;24;56
1408;24;48
1409;24;64
1410;24;56
1411;32;56
1412;32;56
1413;40;56
1414;40;56
1415;40;56
1416;32;48
1417;48;56
1418;48;48
1419;48;48
1420;48;48
1421;56;48
1422;56;48
1423;56;48
1424;64;40
1425;64;40
1426;64;40
1427;64;32
1428;72;40
1429;72;32
1430;72;40
1431;72;-24
1432;80;-24
1433;80;-24
1434;80;-24
1435;88;-24
1436;80;-24
1437;96;-24
1438;88;-24
1439;96;-24
1440;96;-16
1441;96;-24
1442;104;-16
1443;104;-16
1444;104;-16
1445;104;-16
1446;104;-8
1447;112;-8
1448;112;-8
1449;112;0
1450;120;0
1451;112;0
1452;120;8
1453;120;0
1454;128;16
1455;120;8
1456;128;16
1457;128;8
1458;112;8
1459;128;16
1460;136;16
1461;136;8
1462;136;8
1463;136;8
1464;144;8
1465;136;8
1466;144;8
1467;152;8
1468;152;8
1469;152;8
1470;160;8
1471;152;8
1472;160;0
1473;160;8
1474;168;8
1475;168;8
1476;168;0
1477;168;8
1478;168;8
1479;168;0
1480;168;0
1481;176;8
1482;176;0
1483;176;0
1484;184;8
1485;184;0
1486;184;0
1487;184;0
1488;192;0
1489;192;0
1490;192;0
1491;192;0
1492;200;0
1493;200;0
1494;200;0
1495;200;0
1496;200;0
1497;208;0
1498;224;0
1499;208;-8
1500;208;0
1501;216;0
1502;216;0
1503;216;0
1504;216;0
1505;216;0
1506;224;0
1507;224;-8
1508;224;0
1509;224;0
1510;224;-8
1511;224;0
1512;224;-8
1513;232;-8
1514;232;-8
1515;232;-16
1516;232;-8
1517;240;-16
1518;240;-16
1519;232;-16
1520;248;-24
1521;248;-16
1522;248;-24
1523;248;-24
1524;248;-24
1525;248;-24
1526;240;-24
1527;256;-24
1528;248;-24
1529;256;-24
1530;256;-32
1531;264;-24
1532;256;-24
1533;272;-24
1534;264;-16
1535;264;-16
1536;264;-8
1537;264;-8
1538;264;0
1539;272;0
1540;272;0
1541;272;8
1542;272;8
1543;272;8
1544;272;8
1545;272;8
1546;272;8
1547;280;16
1548;280;8
1549;280;8
1550;280;8
1551;280;8
1552;280;16
1553;288;8
1554;288;8
1555;288;8
1556;288;8
1557;288;8
1558;288;0
1559;288;0
1560;296;8
1561;296;8
1562;296;8
1563;296;8
1564;296;0
1565;304;8
1566;304;8
1567;304;0
1568;296;0
1569;304;0
1570;304;0
1571;304;0
1572;304;0
1573;296;0
1574;312;0
1575;312;0
1576;312;0
1577;312;0
1578;312;0
1579;312;0
1580;312;0
1581;312;0
1582;312;0
1583;312;0
1584;312;0
1585;320;0
1586;312;0
1587;320;0
1588;320;0
1589;320;0
1590;320;-8
1591;320;-8
1592;320;0
1593;320;0
1594;328;-8
1595;320;-8
1596;320;-8
1597;320;-8
1598;320;-8
1599;328;-8
1600;328;-16
1601;328;-16
1602;320;-16
1603;328;-16
1604;328;-16
1605;328;-16
1606;328;-24
1607;328;-24
1608;328;-24
1609;328;-24
1610;328;-24
1611;328;-24
1612;328;-24
1613;328;-24
1614;328;-24
1615;304;-24
1616;328;-24
1617;328;-24
1618;328;-16
1619;336;-16
1620;328;-8
1621;336;-8
1622;328;0
1623;328;0
1624;336;0
1625;336;0
1626;336;8
1627;344;8
1628;328;8
1629;336;8
1630;336;8
1631;336;8
1632;328;8
1633;336;8
1634;336;16
1635;336;16
1636;336;16
1637;336;8
1638;336;8
1639;336;-8
1640;336;-8
1641;336;-16
1642;336;-8
1643;336;-16
1644;336;-16
1645;336;-16
1646;336;-16
1647;336;-16
1648;336;-16
1649;336;-16
1650;336;-24
1651;336;-16
1652;336;-16
1653;336;-24
1654;328;-24
1655;344;-16
1656;336;-24
1657;328;-24
1658;336;-24
1659;328;-24
1660;336;-24
1661;336;-24
1662;328;-24
1663;328;-32
1664;328;-32
1665;328;-32
1666;328;-40
1667;328;-40
1668;328;-40
1669;328;-40
1670;328;-40
1671;328;-40
1672;328;-48
1673;328;-48
